{
  "project_info": {
    "project_number": "690927457807",
    "project_id": "simple-networking",
    "storage_bucket": "simple-networking.appspot.com"
  },
  "client": [
    {
      "client_info": {
        "mobilesdk_app_id": "1:690927457807:android:d0f2430c905585c048357a",
        "android_client_info": {
          "package_name": "com.example.simplenetworking"
        }
      },
      "oauth_client": [],
      "api_key": [
        {
          "current_key": "AIzaSyAtbCA50ZEeKggif3qTEHvu52knDHi09RU"
        }
      ],
      "services": {
        "appinvite_service": {
          "other_platform_oauth_client": []
        }
      }
    }
  ],
  "configuration_version": "1"
}